Textual Analysis
…
Code

bing_and_nrc %>%
  select(Team, method, sentiment) %>%
  filter(method == 'Bing')

# A tibble: 355 × 3
   Team            method sentiment
   <fct>           <chr>      <dbl>
 1 West_Ham_United Bing           2
 2 West_Ham_United Bing           1
 3 West_Ham_United Bing           1
 4 West_Ham_United Bing          -4
 5 West_Ham_United Bing          -1
 6 West_Ham_United Bing          -6
 7 West_Ham_United Bing          20
 8 West_Ham_United Bing          22
 9 West_Ham_United Bing           8
10 West_Ham_United Bing          13
# … with 345 more rows
…
